…
The variables that actually look at the differences here are the variables that contain “diff” in their name. Let’s look at those variables in detail.

paygap_raw |> 
  select(contains("diff"))
## # A tibble: 48,711 × 4
##    diff_mean_hourly_percent diff_median_hourly_percent diff_mean_bonus_percent
##                       <dbl>                      <dbl>                   <dbl>
##  1                     18                         28.2                     0  
##  2                      2.3                       -2.7                    15  
##  3                     41                         36                     -69.8
##  4                    -22                        -34                     -47  
##  5                     13.4                        8.1                    41.4
##  6                     15.1                        2.8                    77.6
##  7                     15                          0                       0  
##  8                     11.9                        0                       0  
##  9                     13.4                        8.5                    62.9
## 10                     15.3                        6.9                    55.5
## # ℹ 48,701 more rows
## # ℹ 1 more variable: diff_median_bonus_percent <dbl>

There are four variables. First two are differences in hourly pay (mean and median) and last two are differences in bonus (mean and median). The positive numbers have to be interpreted as men earning as much more than women in that company/organisation.

A useful variable is the SIC code, stands for standard industrial classification of economic activities. It identifies the business that the company is operating in.

paygap_raw |> 
  select(contains("sic"))
## # A tibble: 48,711 × 1
##    sic_codes        
##    <chr>            
##  1 85310            
##  2 47730            
##  3 78300            
##  4 93110            
##  5 56210:70229      
##  6 93110:93130:93290
##  7 86900:88100      
##  8 56290            
##  9 1470:10910       
## 10 10120            
## # ℹ 48,701 more rows

As can be noticed, some companies have more than one SIC code. Let’s separate them with seperate_rows() function from tidyr. Then, let’s count them to see which ones are the most common.1

paygap_raw |>  
  select(sic_codes) |>  
  separate_rows(sic_codes, sep = ":") |> 
  count(sic_codes, sort = TRUE)
## # A tibble: 639 × 2
##    sic_codes     n
##    <chr>     <int>
##  1 1          6584
##  2 85310      3020
##  3 <NA>       2894
##  4 82990      2588
##  5 85200      2219
##  6 84110      1886
##  7 70100      1541
##  8 86900      1246
##  9 78200      1149
## 10 86210      1074
## # ℹ 629 more rows

But what do these SIC codes mean? Let’s check out! The CSV file is available at UK government’s website.

uk_sic_codes = read_csv("https://assets.publishing.service.gov.uk/government/uploads/system/uploads/attachment_data/file/527619/SIC07_CH_condensed_list_en.csv")
## Rows: 731 Columns: 2
## ── Column specification ────────────────────────────────────────────────────────
## Delimiter: ","
## chr (2): SIC Code, Description
## 
## ℹ Use `spec()` to retrieve the full column specification for this data.
## ℹ Specify the column types or set `show_col_types = FALSE` to quiet this message.
uk_sic_codes
## # A tibble: 731 × 2
##    `SIC Code` Description                                                     
##    <chr>      <chr>                                                           
##  1 01110      Growing of cereals (except rice), leguminous crops and oil seeds
##  2 01120      Growing of rice                                                 
##  3 01130      Growing of vegetables and melons, roots and tubers              
##  4 01140      Growing of sugar cane                                           
##  5 01150      Growing of tobacco                                              
##  6 01160      Growing of fibre crops                                          
##  7 01190      Growing of other non-perennial crops                            
##  8 01210      Growing of grapes                                               
##  9 01220      Growing of tropical and subtropical fruits                      
## 10 01230      Growing of citrus fruits                                        
## # ℹ 721 more rows

The variable name needs to be cleaned.

uk_sic_codes = uk_sic_codes |> 
  janitor::clean_names()
uk_sic_codes
## # A tibble: 731 × 2
##    sic_code description                                                     
##    <chr>    <chr>                                                           
##  1 01110    Growing of cereals (except rice), leguminous crops and oil seeds
##  2 01120    Growing of rice                                                 
##  3 01130    Growing of vegetables and melons, roots and tubers              
##  4 01140    Growing of sugar cane                                           
##  5 01150    Growing of tobacco                                              
##  6 01160    Growing of fibre crops                                          
##  7 01190    Growing of other non-perennial crops                            
##  8 01210    Growing of grapes                                               
##  9 01220    Growing of tropical and subtropical fruits                      
## 10 01230    Growing of citrus fruits                                        
## # ℹ 721 more rows
…
What do we have here… The Order of St. Augustine of the Mercy of Jesus (Roman Catholic Church) has the highest difference in bonus: 40%. Bowdraper is a cleaning service company.

To proceed, I need to join the SIC code values to that data frame. Before that, I have to separate the SIC codes which can be separated using :.

paygap_joined = paygap_raw |> 
  #select(employer_name, diff_median_hourly_percent, sic_codes) |> 
  separate_rows(sic_codes, sep = ":") |> 
  left_join(uk_sic_codes, by = c("sic_codes" = "sic_code"))

paygap_joined
## # A tibble: 71,943 × 28
##    employer_name          employer_id address post_code company_number sic_codes
##    <chr>                        <dbl> <chr>   <chr>     <chr>          <chr>    
##  1 Bryanston School, Inc…         676 Bryans… DT11 0PX  00226143       85310    
##  2 RED BAND CHEMICAL COM…       16879 19 Smi… EH6 8NU   SC016876       47730    
##  3 123 EMPLOYEES LTD            17677 34 Rou… LS7 1AB   10530651       78300    
##  4 1610 LIMITED                   682 Trinit… TA6 3JA   06727055       93110    
##  5 1879 EVENTS MANAGEMEN…       17101 The Su… SR5 1SU   07743495       56210    
##  6 1879 EVENTS MANAGEMEN…       17101 The Su… SR5 1SU   07743495       70229    
##  7 1LIFE MANAGEMENT SOLU…         687 Ldh Ho… PE27 4AA  02566586       93110    
##  8 1LIFE MANAGEMENT SOLU…         687 Ldh Ho… PE27 4AA  02566586       93130    
##  9 1LIFE MANAGEMENT SOLU…         687 Ldh Ho… PE27 4AA  02566586       93290    
## 10 1ST HOME CARE LTD.           17484 Real L… KY12 7LG  SC272838       86900    
## # ℹ 71,933 more rows
## # ℹ 22 more variables: diff_mean_hourly_percent <dbl>,
## #   diff_median_hourly_percent <dbl>, diff_mean_bonus_percent <dbl>,
## #   diff_median_bonus_percent <dbl>, male_bonus_percent <dbl>,
## #   female_bonus_percent <dbl>, male_lower_quartile <dbl>,
## #   female_lower_quartile <dbl>, male_lower_middle_quartile <dbl>,
## #   female_lower_middle_quartile <dbl>, male_upper_middle_quartile <dbl>, …

Let’s see how many unique descriptions are there for SIC codes.

paygap_joined |> 
  count(description, sort = TRUE)
## # A tibble: 611 × 2
##    description                                          n
##    <chr>                                            <int>
##  1 <NA>                                             10093
##  2 General secondary education                       3020
##  3 Other business support service activities n.e.c.  2588
##  4 Primary education                                 2219
##  5 General public administration activities          1886
##  6 Activities of head offices                        1541
##  7 Other human health activities                     1246
##  8 Temporary employment agency activities            1149
##  9 General medical practice activities               1074
## 10 Other service activities n.e.c.                    841
## # ℹ 601 more rows

Many of them are similar to each other. “General secondary education” is very similar to “Primary education” — considering teachers as one group might be more meaningful for analysis.

This can be done using tidytext package. I’m not interested in stop words, I will remove them. There are also many missing descriptions; I’ll remove them too.

library(tidytext)

paygap_tokenized = paygap_joined |> 
  unnest_tokens(word, description) |> 
  anti_join(get_stopwords()) |> 
  na.omit()
## Joining with `by = join_by(word)`

paygap_tokenized
## # A tibble: 129,419 × 28
##    employer_name          employer_id address post_code company_number sic_codes
##    <chr>                        <dbl> <chr>   <chr>     <chr>          <chr>    
##  1 Bryanston School, Inc…         676 Bryans… DT11 0PX  00226143       85310    
##  2 Bryanston School, Inc…         676 Bryans… DT11 0PX  00226143       85310    
##  3 Bryanston School, Inc…         676 Bryans… DT11 0PX  00226143       85310    
##  4 1610 LIMITED                   682 Trinit… TA6 3JA   06727055       93110    
##  5 1610 LIMITED                   682 Trinit… TA6 3JA   06727055       93110    
##  6 1610 LIMITED                   682 Trinit… TA6 3JA   06727055       93110    
##  7 1879 EVENTS MANAGEMEN…       17101 The Su… SR5 1SU   07743495       56210    
##  8 1879 EVENTS MANAGEMEN…       17101 The Su… SR5 1SU   07743495       56210    
##  9 1879 EVENTS MANAGEMEN…       17101 The Su… SR5 1SU   07743495       56210    
## 10 1879 EVENTS MANAGEMEN…       17101 The Su… SR5 1SU   07743495       70229    
## # ℹ 129,409 more rows
## # ℹ 22 more variables: diff_mean_hourly_percent <dbl>,
## #   diff_median_hourly_percent <dbl>, diff_mean_bonus_percent <dbl>,
## #   diff_median_bonus_percent <dbl>, male_bonus_percent <dbl>,
## #   female_bonus_percent <dbl>, male_lower_quartile <dbl>,
## #   female_lower_quartile <dbl>, male_lower_middle_quartile <dbl>,
## #   female_lower_middle_quartile <dbl>, male_upper_middle_quartile <dbl>, …

Let’s see the most common words.

paygap_tokenized |> 
  count(word, sort = T)
## # A tibble: 842 × 2
##    word            n
##    <chr>       <int>
##  1 activities  11925
##  2 n.e.c        5121
##  3 manufacture  3905
##  4 service      3235
##  5 sale         2582
##  6 support      2174
##  7 business     2013
##  8 specialised  1930
##  9 motor        1876
## 10 retail       1855
## # ℹ 832 more rows
…
top_words =
  paygap_tokenized |> 
  count(word) |> 
  filter(!word %in% c("activities", "n.e.c", "general", "non")) |> 
  slice_max(n, n = 40) |> 
  pull(word)

Let’s take the tokenised dataset, filter only the top words. Then, we will see how different jobs have differences in pays.

paygap = paygap_tokenized |> 
  filter(word %in% top_words) |> 
  transmute(diff_wage = diff_median_hourly_percent / 100, word)
paygap
## # A tibble: 48,573 × 2
##    diff_wage word       
##        <dbl> <chr>      
##  1     0.282 education  
##  2    -0.34  facilities 
##  3     0.081 management 
##  4     0.081 consultancy
##  5     0.081 financial  
##  6     0.081 management 
##  7     0.028 facilities 
##  8     0.028 facilities 
##  9     0     human      
## 10     0     health     
## # ℹ 48,563 more rows

Okay, now we are ready to analyse the differences.

Comparing by SIC Codes

paygap_joined |> 
  mutate(diff_wage = diff_median_hourly_percent / 100) |> 
  group_by(description) |>
  summarise(diff_wage = mean(diff_wage)) |> 
  arrange(desc(diff_wage))
## # A tibble: 611 × 2
##    description                                         diff_wage
##    <chr>                                                   <dbl>
##  1 Factoring                                               0.355
##  2 Manufacture of wiring devices                           0.344
##  3 Plumbing, heat and air-conditioning installation        0.333
##  4 Banks                                                   0.333
##  5 Non-scheduled passenger air transport                   0.331
##  6 Binding and related services                            0.312
##  7 Activities of construction holding companies            0.312
##  8 Manufacture of tools                                    0.308
##  9 Security and commodity contracts dealing activities     0.307
## 10 Electrical installation                                 0.304
## # ℹ 601 more rows
…
<img src="{{< blogdown/postref >}}index_files/figure-html/unnamed-chunk-22-1.png" width="100%" />

Management, business and transportation service businesses look like to have the least differences.

The average is not enough. Let’s fit a simple linear regression model.

I’m forcing the intercept to be zero as I’m only looking for the differences due to the word; else the difference should be zero.

paygap_fit = lm(diff_wage ~ 0 + word, data = paygap)
broom::tidy(paygap_fit)
## # A tibble: 40 × 5
##    term              estimate std.error statistic   p.value
##    <chr>                <dbl>     <dbl>     <dbl>     <dbl>
##  1 wordaccommodation   0.0285   0.00532      5.35 8.66e-  8
##  2 wordagency          0.0752   0.00546     13.8  5.22e- 43
##  3 wordbusiness        0.164    0.00314     52.3  0        
##  4 wordcare            0.0137   0.00525      2.61 8.97e-  3
##  5 wordcars            0.157    0.00496     31.7  2.82e-218
##  6 wordconstruction    0.209    0.00401     52.1  0        
##  7 wordconsultancy     0.195    0.00555     35.2  1.67e-268
##  8 worddevelopment     0.184    0.00569     32.3  5.43e-226
##  9 wordeducation       0.155    0.00458     33.9  1.53e-248
## 10 wordemployment      0.0662   0.00504     13.1  2.49e- 39
## # ℹ 30 more rows
…
How does hourly pay gap correspond to bonus?

Hourly Pay and Bonus by Employer

I’m averaging the data we have for each employer. Each point represents a company. I’ve removed companies which had more than 50% difference in pay. It is sad in itself that we have those companies, but including them would worsen our plots and hide the cases where we can have significant impact.

paygap_employer = paygap_raw |> 
  mutate(diff_median_bonus_percent = diff_median_bonus_percent/100,
         diff_median_hourly_percent = diff_median_hourly_percent) |> 
  group_by(employer_name) |> 
  summarise(diff_median_bonus_percent = mean(diff_median_bonus_percent, na.rm = TRUE),
            diff_median_hourly_percent = mean(diff_median_hourly_percent, na.rm = TRUE)) |> 
  na.omit()
paygap_employer
## # A tibble: 13,636 × 3
##    employer_name                   diff_median_bonus_pe…¹ diff_median_hourly_p…²
##    <chr>                                            <dbl>                  <dbl>
##  1 10 TRINITY SQUARE HOTEL LIMITED                  0.545                   10.3
##  2 123 EMPLOYEES LTD                               -0.441                   32.5
##  3 123-REG LIMITED                                  0.402                   18.1
##  4 1509 GROUP                                       0                       13.8
##  5 1610 LIMITED                                    -0.25                   -35  
##  6 1825 FINANCIAL PLANNING AND AD…                  0.83                    42.6
##  7 1879 EVENTS MANAGEMENT LIMITED                   0.437                    8.1
##  8 1LIFE MANAGEMENT SOLUTIONS LIM…                  0.392                  -18.4
##  9 1ST CHOICE STAFF RECRUITMENT L…                 -2.39                    -1  
## 10 1ST HOME CARE LTD.                               0                        0.1
## # ℹ 13,626 more rows
## # ℹ abbreviated names: ¹​diff_median_bonus_percent, ²​diff_median_hourly_percent
…
<img src="{{< blogdown/postref >}}index_files/figure-html/unnamed-chunk-28-1.png" width="100%" />

Hourly Pay and Bonus by Industry

We can also look at the differences by industry.

paygap_industry = paygap_joined |> 
  mutate(diff_median_bonus_percent = diff_median_bonus_percent/100,
         diff_median_hourly_percent = diff_median_hourly_percent) |> 
  group_by(description) |> 
  summarise(diff_median_bonus_percent = mean(diff_median_bonus_percent, na.rm = TRUE),
            diff_median_hourly_percent = mean(diff_median_hourly_percent, na.rm = TRUE)) |> 
  na.omit()
paygap_industry
## # A tibble: 609 × 3
##    description                     diff_median_bonus_pe…¹ diff_median_hourly_p…²
##    <chr>                                            <dbl>                  <dbl>
##  1 Accounting and auditing activi…                 0.179                   12.2 
##  2 Activities auxiliary to financ…                 0.359                   20.6 
##  3 Activities of amusement parks …                 0.187                    3.75
##  4 Activities of business and emp…                -0.0625                   8.77
##  5 Activities of call centres                      0.121                    3.51
##  6 Activities of collection agenc…                 0.250                    8.74
##  7 Activities of conference organ…                 0.311                   10.7 
##  8 Activities of construction hol…                 0.448                   31.2 
##  9 Activities of credit bureaus                    0.318                   -0.88
## 10 Activities of distribution hol…                 0.261                   14.5 
## # ℹ 599 more rows
## # ℹ abbreviated names: ¹​diff_median_bonus_percent, ²​diff_median_hourly_percent
…
The two outliers are “Manufacturer of ceramic tiles” who pay 60% less bonus to women than men while having 16% less hourly wage, and “Retail sale of bread, cakes, flour confectionary and sugar confectionary in specialised stores” where women have 20% less bonus but 8% more hourly wage.

Hourly Pay and Bonus by Industry-Word

Recall that we found the top common words from the descriptions that represented the general ideas.

paygap_words = paygap_tokenized |> 
  filter(word %in% top_words) |> 
  transmute(diff_wage = diff_median_hourly_percent / 100, 
            diff_bonus = diff_median_bonus_percent/ 100,
            word) |> 
  group_by(word) |> 
  summarise(diff_wage = mean(diff_wage), diff_bonus = mean(diff_bonus))
paygap_words
## # A tibble: 40 × 3
##    word          diff_wage diff_bonus
##    <chr>             <dbl>      <dbl>
##  1 accommodation    0.0285   0.0418  
##  2 agency           0.0752  -0.220   
##  3 business         0.164    0.0928  
##  4 care             0.0137   0.000628
##  5 cars             0.157    0.347   
##  6 construction     0.209   -0.0564  
##  7 consultancy      0.195    0.243   
##  8 development      0.184    0.168   
##  9 education        0.155   -0.0361  
## 10 employment       0.0662  -0.386   
## # ℹ 30 more rows
…
